MyLabJournal - 02 Supervised ML
…
...
and 36 more lines.

bike_fit %>% 
  pull_workflow_fit() %>% 
  tidy()

Warning: `pull_workflow_fit()` was deprecated in workflows 0.2.3.
ℹ Please use `extract_fit_parsnip()` instead.

# A tibble: 77 × 5
   term             estimate std.error  statistic p.value
   <chr>               <dbl>     <dbl>      <dbl>   <dbl>
 1 (Intercept)       1.44e23   1.67e17    859865.       0
 2 id                1.22e14   1.50e 6  81475067.       0
 3 weight           -2.23e14   7.92e 6 -28154667.       0
 4 price             5.32e11   7.58e 3  70136851.       0
 5 shimano_dura_ace  1.23e15   9.73e 7  12660106.       0
 6 shimano_ultegra   1.53e15   9.07e 7  16905410.       0
 7 shimano_105       1.05e15   9.26e 7  11380387.       0
 8 shimano_tiagra   -1.33e15   1.07e 8 -12523704.       0
 9 shimano_deore    -7.67e14   3.54e 7 -21688217.       0
10 shimano_slx       7.48e14   3.52e 7  21224648.       0
# ℹ 67 more rows
…
bike_pred

# A tibble: 47 × 4
   .pred_aluminium .pred_carbon frame_material category_2    
             <dbl>        <dbl> <fct>          <chr>         
 1        2.22e-16     1   e+ 0 carbon         Race          
 2        1   e+ 0     2.22e-16 aluminium      Endurance     
 3        1   e+ 0     2.22e-16 aluminium      Endurance     
 4        1   e+ 0     2.22e-16 carbon         Endurance     
 5        2.22e-16     1   e+ 0 carbon         Endurance     
 6        1   e+ 0     2.22e-16 aluminium      Cyclocross    
 7        2.22e-16     1   e+ 0 carbon         Triathlon Bike
 8        2.22e-16     1   e+ 0 carbon         Triathlon Bike
 9        2.22e-16     1   e+ 0 carbon         Triathlon Bike
10        2.22e-16     1   e+ 0 carbon         Triathlon Bike
# ℹ 37 more rows
…
